module github.com/zcong1993/rds-test

require (
	github.com/gin-contrib/sse v0.0.0-20170109093832-22d885f9ecc7 // indirect
	github.com/gin-gonic/gin v1.3.0
	github.com/go-redis/redis v6.13.2+incompatible
	github.com/golang/protobuf v1.1.0 // indirect
	github.com/mattn/go-isatty v0.0.3 // indirect
	github.com/ugorji/go v1.1.1 // indirect
	gopkg.in/go-playground/validator.v8 v8.18.2 // indirect
	gopkg.in/yaml.v2 v2.2.1 // indirect
)
